{
  "LOOP_INTF": {
    "description": "The full interface name and number of the link connecting to the REP loop",
    "longname": "Loop Interface",
    "example": "Ex. GigabitEthernet1/13",
    "userinput": true,
    "order": 10,
    "regex": "^(?:[Gg][Ii])(?:(?:gabit[Ee]thernet)|(?: |))(?:1\/(?:[1-2]|)[0-9])$"
  }
}
