{
  "PARK_NAME": {
    "order": 10,
    "description": "Used as part of the device hostname",
    "example": "SP-99999",
    "longname": "Park Name (SP number)",
    "userinput": true,
    "default_value": "SP-12345",
    "regex": "^SP-[0-9]{5}$"
  },
  "COUNTRY_CODE": {
    "order": 11,
    "description": "A two character country code used as part of the banners and location information",
    "example": "DK, UK, US, JP, AU, etc.",
    "longname": "Country Code",
    "default_value": "DK",
    "userinput": true,
    "regex": "^[A-Z]{2}$"
  },
  "SITE_NAME": {
    "order": 12,
    "description": "A short descriptive name for the site used as part of the banners and location information",
    "example": "Hed42-Lab1, Hed42-Lab2, Riverside56, etc.",
    "longname": "Site Name",
    "userinput": true,
    "default_value": "Testlab Site 1",
    "regex": "^[A-Za-z0-9\\-_\\.]*$"
  },
  "REGION": {
    "description": "The region is derived from the country code",
    "example": "EMEA, APAC or NCSA",
    "longname": "Region",
    "userinput": false,
    "regex": "^APAC|EMEA|NCSA$"
  },
  "VER_NUM": {
    "description": "The template version number is derived from the folder naming",
    "longname": "Template Version",
    "userinput": false,
    "regex": "^(?:[0-9]+)\\.(?:[0-9]+)\\.(?:[0-9]+)$"
  },
  "RADIUS_HOSTS": {
    "description": "The RADIUS hosts used in the template",
    "longname": "RADIUS hosts configuration",
    "region": true,
    "userinput": false
  }
}
